{
  "exchangename":"poloniex",
  "apikey": "xxx",
  "apisecret": "xxx",
  "pair":"nbt_btc",

  "dualside": true,
  "mailrecipient":"xxx@xxx.xxx",

  "bookSellwall": 1000.0,
  "bookSellOffset": 0.002,

  "bookBuywall": 1000.0,
  "bookBuyOffset": 0.048,

  "poolModeActive" : true,
  "poolURI" : "poolhost:port",
  "poolPayoutAddress" : "NBTaddress"
}
