{
  "apiKey": "",
  "apiSecret": "",
  "mailRecipient": "bla",
  "exchangeName": "Simulation",
  "dualSide": true,
  "pair": "nbt_btc",
  "rpcUser": "bla",
  "rpcPass": "yay",
  "nubitAddress": "testUI",
  "nudPort": 9091,
  "nudIp": "127.0.0.1",
  "mailnotifications": "NONE",
  "submitLiquidity": false,
  "executeOrders": false,
  "verbose": true,
  "gitter": false,
  "multipleoperators": false,
  "txFee": 0.0,
  "priceIncrement": 0.0,
  "emergencyTimeout": 60,
  "keepProceeds": 0.0,
  "bookDisabletier2": false,
  "bookSellwall": 5.0,
  "bookBuywall": 5.0,
  "distributeLiquidity": false,
  "wallchangeThreshold": 0.1,
  "webport": 8889,
  "spread": 10.0,
  "mainFeed": "simulationfeed",
  "backupFeeds": [
    "simulationfeed",
    "simulationfeed"
  ]
}
